<svg viewBox="0 0 985 228" version="1" xmlns="http://www.w3.org/2000/svg">
  <g fill="none" fill-rule="evenodd">
    <g stroke="#000" stroke-width="3">
      <g id="introLeft">
        <path id="Path" fill="#000" d="M88 18v73h46V18h88v200h-88v-74H88v74H0V18z" />
        <path id="Path" fill="#FFF" d="M88 0v73h46V0h88v200h-88v-74H88v74H0V0z" />
        <path id="Path" fill="#000" d="M416 18v50h-78v25h54v50h-54v25h78v50H250V18z" />
        <path id="Path" fill="#FFF" d="M416 0v50h-78v25h54v50h-54v25h78v50H250V0z" />
      </g>
      <g id="introRight">
        <g id="letter-L1">
          <path id="Path" fill="#000" d="M89 18v150h77v50H0V18z" />
          <path id="Path" fill="#FFF" d="M89 0v150h77v50H0V0z" />
        </g>
        <g id="letter-L2">
          <path id="Path" fill="#000" d="M89 18v150h77v50H0V18z" />
          <path id="Path" fill="#FFF" d="M89 0v150h77v50H0V0z" />
        </g>
        <path d="M879 18a101 101 0 0 1 89 51c9 16 13 33 13 52a103 103 0 0 1-50 89c-16 10-33 14-52 14a101 101 0 0 1-103-103c0-18 5-36 14-51a101 101 0 0 1 89-52zm-20 98c0 6 2 11 6 15 3 4 8 5 14 5 5 0 10-1 14-5s6-9 6-15l-2-9-4-7-6-4-8-1c-6 0-11 2-14 5-4 4-6 9-6 16z"
              id="Combined-Shape" fill="#000" />
        <path d="M879 0a101 101 0 0 1 89 51c9 16 13 33 13 52a103 103 0 0 1-50 89c-16 10-33 14-52 14a101 101 0 0 1-103-103c0-18 5-36 14-51a101 101 0 0 1 89-52zm-20 98c0 6 2 11 6 15 3 4 8 5 14 5 5 0 10-1 14-5s6-9 6-15l-2-9-4-7-6-4-8-1c-6 0-11 2-14 5-4 4-6 9-6 16z"
              id="Combined-Shape" fill="#FFF" />
      </g>
    </g>
  </g>
</svg>
